<svg xmlns="http://www.w3.org/2000/svg" viewBox="0 0 295.61 125.68">
    <defs>
        <style>.cls-1{fill:#e7c8d9;}.cls-2{fill:none;stroke:#c2237c;stroke-miterlimit:10;stroke-width:3.27px;}</style>
    </defs>
    <title>404</title>
    <g id="Layer_2" data-name="Layer 2">
        <g id="OBJECTS_copia" data-name="OBJECTS copia">
            <path class="cls-1" d="M92.36,99.82H79.24v23.05H47.48V99.82H0V76.2L49.52,3.8H79.24v72H92.36Zm-44.88-24V62c0-2.61.1-6.12.29-10.55s.33-6.74.44-7h-.89a87.1,87.1,0,0,1-6.27,11.73L27.85,75.79Z"/>
            <path class="cls-1" d="M186.75,63.5q0,31.59-10.59,46.3t-32.41,14.7q-21.34,0-32.17-15.35T100.74,63.5q0-31.77,10.59-46.59T143.75,2.09q21.25,0,32.12,15.43T186.75,63.5Zm-54,0q0,20.19,2.53,27.77t8.47,7.57q6,0,8.51-7.82t2.48-27.52q0-19.8-2.52-27.74t-8.47-7.94q-6,0-8.47,7.66T132.75,63.5Z"/>
            <path class="cls-1" d="M287.82,99.82H274.7v23.05H242.94V99.82H195.46V76.2L245,3.8H274.7v72h13.12Zm-44.88-24V62c0-2.61.1-6.12.29-10.55s.33-6.74.44-7h-.89a87.1,87.1,0,0,1-6.27,11.73l-13.2,19.62Z"/>
            <path class="cls-2" d="M98.52,99.37H85.41v23H53.65v-23H6.16V75.75L55.68,3.34H85.41v72H98.52Zm-44.87-24V61.49c0-2.6.09-6.12.28-10.54a67.68,67.68,0,0,1,.45-7h-.9a83.76,83.76,0,0,1-6.27,11.73L34,75.34Z"/>
            <path class="cls-2" d="M192.91,63q0,31.6-10.59,46.3T149.91,124q-21.34,0-32.17-15.35T106.91,63q0-31.76,10.59-46.58T149.91,1.63q21.26,0,32.13,15.44T192.91,63Zm-54,0q0,20.21,2.53,27.77t8.47,7.58q6,0,8.51-7.82T160.9,63q0-19.78-2.52-27.73t-8.47-7.94q-5.94,0-8.47,7.65T138.91,63Z"/>
            <path class="cls-2" d="M294,99.37H280.87v23H249.11v-23H201.63V75.75L251.14,3.34h29.73v72H294Zm-44.87-24V61.49c0-2.6.09-6.12.28-10.54a67.68,67.68,0,0,1,.45-7h-.9a83.76,83.76,0,0,1-6.27,11.73L229.48,75.34Z"/>
        </g>
    </g>
</svg>