<svg width="11" height="16" viewBox="0 0 11 16" fill="none" xmlns="http://www.w3.org/2000/svg">
<path fill-rule="evenodd" clip-rule="evenodd" d="M6.93324 7H3.5199V4C3.5199 2.897 4.28534 2 5.22657 2C6.16779 2 6.93324 2.897 6.93324 4V7ZM5.22657 13C4.75511 13 4.37324 12.5525 4.37324 12C4.37324 11.4475 4.75511 11 5.22657 11C5.69804 11 6.07991 11.4475 6.07991 12C6.07991 12.5525 5.69804 13 5.22657 13ZM9.49324 7H8.6399V4C8.6399 1.791 7.11158 0 5.22657 0C3.34156 0 1.81323 1.791 1.81323 4V7H0.959901C0.490568 7 0.106567 7.45 0.106567 8V15C0.106567 15.55 0.490568 16 0.959901 16H9.49324C9.96257 16 10.3466 15.55 10.3466 15V8C10.3466 7.45 9.96257 7 9.49324 7Z" fill="white"/>
</svg>
