<?xml version="1.0" encoding="utf-8"?>
<!-- Generator: Adobe Illustrator 23.0.1, SVG Export Plug-In . SVG Version: 6.00 Build 0)  -->
<svg version="1.1" id="Layer_1" xmlns="http://www.w3.org/2000/svg" xmlns:xlink="http://www.w3.org/1999/xlink" x="0px" y="0px"
	 viewBox="0 0 55 55" style="enable-background:new 0 0 55 55;" xml:space="preserve">
<style type="text/css">
	.st0{fill-rule:evenodd;clip-rule:evenodd;fill:#FFFFFF;}
	.st1{fill:#EFAA3A;}
</style>
<path class="st0" d="M27.5,52.8c-14,0-25.3-11.3-25.3-25.3S13.5,2.2,27.5,2.2s25.3,11.3,25.3,25.3S41.5,52.8,27.5,52.8 M27.5,0
	C12.3,0,0,12.3,0,27.5S12.3,55,27.5,55S55,42.7,55,27.5S42.7,0,27.5,0"/>
<path class="st0" d="M27.5,53.7C42,53.7,53.7,42,53.7,27.5S42,1.3,27.5,1.3S1.3,13,1.3,27.5S13,53.7,27.5,53.7z"/>
<g>
	<path class="st1" d="M27.5,11.4c-2.1,0-3.5,1-3.5,2.8v16c0,1.8,1.6,2.8,3.5,2.8c2.1,0,3.5-1.2,3.5-2.8v-16
		C31,12.4,29.6,11.4,27.5,11.4z"/>
	<path class="st1" d="M27.5,36.5c-1.9,0-3.5,1.6-3.5,3.5c0,1.9,1.6,3.5,3.5,3.5S31,42,31,40.1C31,38.1,29.4,36.5,27.5,36.5z"/>
</g>
</svg>
